{
	"$schema": "vscode:schemas/color-theme",
	"type": "dark",
	"colors": {
		"activityBar.activeBackground": "#5ae6",
		"activityBar.activeBorder": "#399ee6",
		"activityBar.activeFocusBorder": "#399ee6",
		"activityBar.background": "#f2f2f2",
		"activityBar.dropBorder": "#aa00ff",
		"activityBar.inactiveForeground": "#00b0ff",
		"activityBarBadge.background": "#cf14f5",
		"activityBarBadge.foreground": "#a0f",
		"badge.background": "#cf14f5",
		"badge.foreground": "#ffffff",
		"button.background": "#a154ff",
		"button.foreground": "#ffffff",
		"button.hoverBackground": "#8143cc",
		"diffEditor.insertedTextBackground": "#aa00ff30",
		"diffEditor.removedTextBackground": "#8800ff35",
		"dropdown.background": "#ffffff",
		"dropdown.border": "#ffffff",
		"editor.background": "#ffffff",
		"editor.foldBackground": "#ff00aa30",
		"editor.foreground": "#b200ff",
		"editor.lineHighlightBackground": "#aaf",
		"editor.selectionBackground": "#399ee630",
		"editorBracketMatch.background": "#399ee620",
		"editorBracketMatch.border": "#2c7ab3",
		"editorCursor.background": "#000000",
		"editorCursor.foreground": "#399ee6",
		"editorError.foreground": "#ff00ff",
		"editorGroup.border": "#f2f2f2",
		"editorGroup.dropBackground": "#399ee630",
		"editorGroupHeader.noTabsBackground": "#ffffff",
		"editorGroupHeader.tabsBackground": "#ffffff",
		"editorGutter.addedBackground": "#aa00ff",
		"editorGutter.deletedBackground": "#8800ff",
		"editorGutter.modifiedBackground": "#399ee6",
		"editorHoverWidget.border": "#ffffff",
		"editorIndentGuide.activeBackground1": "#399ee6",
		"editorIndentGuide.background1": "#ffffff",
		"editorInfo.foreground": "#399ee6",
		"editorLineNumber.activeForeground": "#ffffff",
		"editorLineNumber.foreground": "#ffffff",
		"editorLink.activeForeground": "#399ee6",
		"editorMarkerNavigation.background": "#ffffff",
		"editorMarkerNavigationError.background": "#ff00ff",
		"editorMarkerNavigationInfo.background": "#399ee6",
		"editorMarkerNavigationWarning.background": "#ff00aa",
		"editorOverviewRuler.addedForeground": "#399ee6",
		"editorOverviewRuler.border": "#ffffff",
		"editorOverviewRuler.bracketMatchForeground": "#399ee6",
		"editorOverviewRuler.deletedForeground": "#399ee6",
		"editorOverviewRuler.errorForeground": "#ff00ff",
		"editorOverviewRuler.infoForeground": "#399ee6",
		"editorOverviewRuler.modifiedForeground": "#399ee6",
		"editorOverviewRuler.selectionHighlightForeground": "#aaf6",
		"editorOverviewRuler.warningForeground": "#ff00aa",
		"editorPane.background": "#aaf",
		"editorRuler.foreground": "#ffffff",
		"editorSuggestWidget.background": "#ffffff",
		"editorSuggestWidget.border": "#ffffff",
		"editorSuggestWidget.highlightForeground": "#7b00ff",
		"editorWarning.foreground": "#ff00aa",
		"editorWhitespace.foreground": "#ffffff",
		"editorWidget.background": "#ffffff",
		"editorWidget.resizeBorder": "#ffffff",
		"errorForeground": "#ff00ff",
		"extensionButton.prominentBackground": "#a154ff",
		"extensionButton.prominentForeground": "#ffffff",
		"extensionButton.prominentHoverBackground": "#8143cc",
		"focusBorder": "#399ee6",
		"foreground": "#b200ff",
		"gitDecoration.addedResourceForeground": "#aa00ff",
		"gitDecoration.deletedResourceForeground": "#8800ff",
		"gitDecoration.modifiedResourceForeground": "#399ee6",
		"gitDecoration.stageDeletedResourceForeground": "#8800ff",
		"gitDecoration.stageModifiedResourceForeground": "#399ee6",
		"input.background": "#ffffff",
		"input.border": "#ffffff",
		"inputValidation.errorBackground": "#ff00ff90",
		"inputValidation.errorBorder": "#ff00ff",
		"inputValidation.errorForeground": "#ffffff",
		"inputValidation.infoBackground": "#399ee690",
		"inputValidation.infoBorder": "#399ee6",
		"inputValidation.infoForeground": "#000000",
		"inputValidation.warningBackground": "#ff00aa90",
		"inputValidation.warningBorder": "#ff00aa",
		"inputValidation.warningForeground": "#ffffff",
		"list.activeSelectionBackground": "#399ee620",
		"list.errorForeground": "#ff00ff",
		"list.focusBackground": "#399ee630",
		"list.highlightForeground": "#7b00ff",
		"list.hoverBackground": "#ffffff",
		"list.inactiveSelectionBackground": "#399ee625",
		"list.warningForeground": "#ff00aa",
		"menu.background": "#ffffff",
		"menu.foreground": "#b200ff",
		"menu.selectionBackground": "#399ee6dd",
		"menu.selectionForeground": "#000000",
		"menu.separatorBackground": "#ffffff",
		"minimap.errorHighlight": "#ff00ff",
		"minimap.selectionHighlight": "#399ee680",
		"minimap.warningHighlight": "#ff00aa",
		"minimapGutter.addedBackground": "#aa00ff",
		"minimapGutter.deletedBackground": "#8800ff",
		"minimapGutter.modifiedBackground": "#399ee6",
		"notifications.background": "#ffffff",
		"notificationsErrorIcon.foreground": "#ff00ff",
		"notificationsInfoIcon.foreground": "#399ee6",
		"notificationsWarningIcon.foreground": "#ff00aa",
		"panelTitle.activeBorder": "#399ee6",
		"peekViewResult.background": "#ffffff",
		"peekViewTitle.background": "#00afff",
		"pickerGroup.border": "#aaf",
		"pickerGroup.foreground": "#399ee6",
		"problemsErrorIcon.foreground": "#ff00ff",
		"problemsInfoIcon.foreground": "#399ee6",
		"problemsWarningIcon.foreground": "#ff00aa",
		"progressBar.background": "#399ee6",
		"scrollbar.shadow": "#a0f",
		"scrollbarSlider.activeBackground": "#ffffff40",
		"scrollbarSlider.background": "#ffffff50",
		"scrollbarSlider.hoverBackground": "#ffffff40",
		"selection.background": "#399ee680",
		"settings.modifiedItemIndicator": "#399ee6",
		"sideBar.background": "#f9f9f9",
		"sideBarSectionHeader.background": "#f9f9f9",
		"statusBar.background": "#f2f2f2",
		"statusBarItem.hoverBackground": "#f2f2f2",
		"statusBarItem.prominentBackground": "#399ee6",
		"statusBarItem.prominentForeground": "#000000",
		"statusBarItem.prominentHoverBackground": "#338ccd",
		"tab.activeBackground": "#ffffff",
		"tab.activeBorder": "#399ee6",
		"tab.activeModifiedBorder": "#399ee6",
		"tab.border": "#ffffff",
		"tab.hoverBackground": "#ffffff",
		"tab.inactiveBackground": "#ffffff",
		"tab.lastPinnedBorder": "#399ee650",
		"terminal.selectionBackground": "#399ee6",
		"terminalCursor.background": "#000000",
		"terminalCursor.foreground": "#399ee6",
		"textLink.activeForeground": "#ff00aa",
		"textLink.foreground": "#ae00ff",
		"textPreformat.foreground": "#a154ff",
		"textSeparator.foreground": "#e6e6e6",
		"titleBar.activeBackground": "#ffffff",
		"titleBar.border": "#ffffff",
		"titleBar.inactiveBackground": "#ffffff",
		"widget.shadow": "#e6e6e6",
		"actionBar.toggledBackground": "#399ee666",
		"activityBar.foreground": "#ffffff",
		"activityBarTop.activeBorder": "#e7e7e7",
		"activityBarTop.dropBorder": "#e7e7e7",
		"activityBarTop.foreground": "#e7e7e7",
		"activityBarTop.inactiveForeground": "#e7e7e799",
		"banner.background": "#399ee620",
		"banner.foreground": "#ffffff",
		"banner.iconForeground": "#399ee6",
		"breadcrumb.activeSelectionForeground": "#ba1aff",
		"breadcrumb.background": "#ffffff",
		"breadcrumb.focusForeground": "#ba1aff",
		"breadcrumb.foreground": "#b200ffcc",
		"breadcrumbPicker.background": "#ffffff",
		"button.secondaryBackground": "#3a3d41",
		"button.secondaryForeground": "#ffffff",
		"button.secondaryHoverBackground": "#45494e",
		"button.separator": "#ffffff66",
		"charts.blue": "#399ee6",
		"charts.foreground": "#b200ff",
		"charts.green": "#89d185",
		"charts.lines": "#b200ff80",
		"charts.orange": "#d18616",
		"charts.purple": "#b180d7",
		"charts.red": "#ff00ff",
		"charts.yellow": "#ff00aa",
		"chat.avatarBackground": "#1f1f1f",
		"chat.avatarForeground": "#b200ff",
		"chat.requestBackground": "#ffffff9e",
		"chat.requestBorder": "#ffffff1a",
		"chat.slashCommandBackground": "#34414b8f",
		"chat.slashCommandForeground": "#40a6ff",
		"checkbox.background": "#ffffff",
		"checkbox.border": "#ffffff",
		"checkbox.foreground": "#f0f0f0",
		"checkbox.selectBackground": "#ffffff",
		"checkbox.selectBorder": "#c5c5c5",
		"commandCenter.activeBackground": "#ffffff14",
		"commandCenter.activeBorder": "#cccccc4d",
		"commandCenter.activeForeground": "#cccccc",
		"commandCenter.background": "#ffffff0d",
		"commandCenter.border": "#cccccc33",
		"commandCenter.debuggingBackground": "#cc663342",
		"commandCenter.foreground": "#cccccc",
		"commandCenter.inactiveBorder": "#cccccc26",
		"commandCenter.inactiveForeground": "#cccccc99",
		"commentsView.resolvedIcon": "#cccccc80",
		"commentsView.unresolvedIcon": "#399ee6",
		"debugConsole.errorForeground": "#ff00ff",
		"debugConsole.infoForeground": "#399ee6",
		"debugConsole.sourceForeground": "#b200ff",
		"debugConsole.warningForeground": "#ff00aa",
		"debugConsoleInputIcon.foreground": "#b200ff",
		"debugExceptionWidget.background": "#420b0d",
		"debugExceptionWidget.border": "#a31515",
		"debugIcon.breakpointCurrentStackframeForeground": "#ffcc00",
		"debugIcon.breakpointDisabledForeground": "#848484",
		"debugIcon.breakpointForeground": "#e51400",
		"debugIcon.breakpointStackframeForeground": "#89d185",
		"debugIcon.breakpointUnverifiedForeground": "#848484",
		"debugIcon.continueForeground": "#75beff",
		"debugIcon.disconnectForeground": "#f48771",
		"debugIcon.pauseForeground": "#75beff",
		"debugIcon.restartForeground": "#89d185",
		"debugIcon.startForeground": "#89d185",
		"debugIcon.stepBackForeground": "#75beff",
		"debugIcon.stepIntoForeground": "#75beff",
		"debugIcon.stepOutForeground": "#75beff",
		"debugIcon.stepOverForeground": "#75beff",
		"debugIcon.stopForeground": "#f48771",
		"debugTokenExpression.boolean": "#4e94ce",
		"debugTokenExpression.error": "#f48771",
		"debugTokenExpression.name": "#c586c0",
		"debugTokenExpression.number": "#b5cea8",
		"debugTokenExpression.string": "#ce9178",
		"debugTokenExpression.value": "#cccccc99",
		"debugToolBar.background": "#333333",
		"debugView.exceptionLabelBackground": "#6c2022",
		"debugView.exceptionLabelForeground": "#b200ff",
		"debugView.stateLabelBackground": "#88888844",
		"debugView.stateLabelForeground": "#b200ff",
		"debugView.valueChangedHighlight": "#569cd6",
		"descriptionForeground": "#b200ffb3",
		"diffEditor.diagonalFill": "#cccccc33",
		"diffEditor.insertedLineBackground": "#9bb95533",
		"diffEditor.move.border": "#8b8b8b9c",
		"diffEditor.moveActive.border": "#ffa500",
		"diffEditor.removedLineBackground": "#ff000033",
		"diffEditor.unchangedCodeBackground": "#74747429",
		"diffEditor.unchangedRegionBackground": "#f9f9f9",
		"diffEditor.unchangedRegionForeground": "#b200ff",
		"diffEditor.unchangedRegionShadow": "#000000",
		"disabledForeground": "#cccccc80",
		"dropdown.foreground": "#f0f0f0",
		"editor.findMatchBackground": "#515c6a",
		"editor.findMatchHighlightBackground": "#ea5c0055",
		"editor.findRangeHighlightBackground": "#3a3d4166",
		"editor.focusedStackFrameHighlightBackground": "#7abd7a4d",
		"editor.hoverHighlightBackground": "#264f7840",
		"editor.inactiveSelectionBackground": "#399ee618",
		"editor.inlineValuesBackground": "#ffc80033",
		"editor.inlineValuesForeground": "#ffffff80",
		"editor.lineHighlightBorder": "#282828",
		"editor.linkedEditingBackground": "#ff00004d",
		"editor.rangeHighlightBackground": "#ffffff0b",
		"editor.selectionHighlightBackground": "#6eb8ed1d",
		"editor.snippetFinalTabstopHighlightBorder": "#525252",
		"editor.snippetTabstopHighlightBackground": "#7c7c7c4d",
		"editor.stackFrameHighlightBackground": "#ffff0033",
		"editor.symbolHighlightBackground": "#ea5c0055",
		"editor.wordHighlightBackground": "#575757b8",
		"editor.wordHighlightStrongBackground": "#004972b8",
		"editor.wordHighlightTextBackground": "#575757b8",
		"editorActiveLineNumber.foreground": "#c6c6c6",
		"editorBracketHighlight.foreground1": "#ffd700",
		"editorBracketHighlight.foreground2": "#da70d6",
		"editorBracketHighlight.foreground3": "#179fff",
		"editorBracketHighlight.foreground4": "#00000000",
		"editorBracketHighlight.foreground5": "#00000000",
		"editorBracketHighlight.foreground6": "#00000000",
		"editorBracketHighlight.unexpectedBracket.foreground": "#ff1212cc",
		"editorBracketPairGuide.activeBackground1": "#00000000",
		"editorBracketPairGuide.activeBackground2": "#00000000",
		"editorBracketPairGuide.activeBackground3": "#00000000",
		"editorBracketPairGuide.activeBackground4": "#00000000",
		"editorBracketPairGuide.activeBackground5": "#00000000",
		"editorBracketPairGuide.activeBackground6": "#00000000",
		"editorBracketPairGuide.background1": "#00000000",
		"editorBracketPairGuide.background2": "#00000000",
		"editorBracketPairGuide.background3": "#00000000",
		"editorBracketPairGuide.background4": "#00000000",
		"editorBracketPairGuide.background5": "#00000000",
		"editorBracketPairGuide.background6": "#00000000",
		"editorCodeLens.foreground": "#999999",
		"editorCommentsWidget.rangeActiveBackground": "#399ee61a",
		"editorCommentsWidget.rangeBackground": "#399ee61a",
		"editorCommentsWidget.replyInputBackground": "#f2f2f2",
		"editorCommentsWidget.resolvedBorder": "#cccccc80",
		"editorCommentsWidget.unresolvedBorder": "#399ee6",
		"editorGhostText.foreground": "#ffffff56",
		"editorGroup.dropIntoPromptBackground": "#ffffff",
		"editorGroup.dropIntoPromptForeground": "#b200ff",
		"editorGutter.background": "#ffffff",
		"editorGutter.commentGlyphForeground": "#b200ff",
		"editorGutter.commentRangeForeground": "#e2f0fb",
		"editorGutter.commentUnresolvedGlyphForeground": "#b200ff",
		"editorGutter.foldingControlForeground": "#c5c5c5",
		"editorHint.foreground": "#eeeeeeb3",
		"editorHoverWidget.background": "#ffffff",
		"editorHoverWidget.foreground": "#b200ff",
		"editorHoverWidget.highlightForeground": "#7b00ff",
		"editorHoverWidget.statusBarBackground": "#ffffff",
		"editorIndentGuide.activeBackground1": "#399ee6",
		"editorIndentGuide.activeBackground2": "#00000000",
		"editorIndentGuide.activeBackground3": "#00000000",
		"editorIndentGuide.activeBackground4": "#00000000",
		"editorIndentGuide.activeBackground5": "#00000000",
		"editorIndentGuide.activeBackground6": "#00000000",
		"editorIndentGuide.background1": "#ffffff",
		"editorIndentGuide.background2": "#00000000",
		"editorIndentGuide.background3": "#00000000",
		"editorIndentGuide.background4": "#00000000",
		"editorIndentGuide.background5": "#00000000",
		"editorIndentGuide.background6": "#00000000",
		"editorInlayHint.background": "#cf14f51a",
		"editorInlayHint.foreground": "#969696",
		"editorInlayHint.parameterBackground": "#cf14f51a",
		"editorInlayHint.parameterForeground": "#969696",
		"editorInlayHint.typeBackground": "#cf14f51a",
		"editorInlayHint.typeForeground": "#969696",
		"editorLightBulb.foreground": "#ffcc00",
		"editorLightBulbAi.foreground": "#ffcc00",
		"editorLightBulbAutoFix.foreground": "#75beff",
		"editorMarkerNavigationError.headerBackground": "#ff00ff1a",
		"editorMarkerNavigationInfo.headerBackground": "#399ee61a",
		"editorMarkerNavigationWarning.headerBackground": "#ff00aa1a",
		"editorMultiCursor.primary.background": "#000000",
		"editorMultiCursor.primary.foreground": "#399ee6",
		"editorMultiCursor.secondary.background": "#000000",
		"editorMultiCursor.secondary.foreground": "#399ee6",
		"editorOverviewRuler.commentForeground": "#e2f0fb",
		"editorOverviewRuler.commentUnresolvedForeground": "#e2f0fb",
		"editorOverviewRuler.commonContentForeground": "#60606066",
		"editorOverviewRuler.currentContentForeground": "#40c8ae80",
		"editorOverviewRuler.findMatchForeground": "#d186167e",
		"editorOverviewRuler.incomingContentForeground": "#40a6ff80",
		"editorOverviewRuler.inlineChatInserted": "#aa00ff1d",
		"editorOverviewRuler.inlineChatRemoved": "#8800ff20",
		"editorOverviewRuler.rangeHighlightForeground": "#007acc99",
		"editorOverviewRuler.wordHighlightForeground": "#a0a0a0cc",
		"editorOverviewRuler.wordHighlightStrongForeground": "#c0a0c0cc",
		"editorOverviewRuler.wordHighlightTextForeground": "#399ee6",
		"editorStickyScroll.background": "#ffffff",
		"editorStickyScroll.shadow": "#e6e6e6",
		"editorStickyScrollHover.background": "#2a2d2e",
		"editorSuggestWidget.focusHighlightForeground": "#7b00ff",
		"editorSuggestWidget.foreground": "#b200ff",
		"editorSuggestWidget.selectedBackground": "#399ee620",
		"editorSuggestWidget.selectedForeground": "#ffffff",
		"editorSuggestWidgetStatus.foreground": "#b200ff80",
		"editorUnicodeHighlight.border": "#ff00aa",
		"editorUnnecessaryCode.opacity": "#000000aa",
		"editorWatermark.foreground": "#b200ff99",
		"editorWidget.border": "#454545",
		"editorWidget.foreground": "#b200ff",
		"extensionBadge.remoteBackground": "#cf14f5",
		"extensionBadge.remoteForeground": "#ffffff",
		"extensionButton.background": "#a154ff",
		"extensionButton.foreground": "#ffffff",
		"extensionButton.hoverBackground": "#8143cc",
		"extensionButton.separator": "#ffffff66",
		"extensionIcon.preReleaseForeground": "#1d9271",
		"extensionIcon.sponsorForeground": "#d758b3",
		"extensionIcon.starForeground": "#ff8e00",
		"extensionIcon.verifiedForeground": "#ae00ff",
		"gitDecoration.conflictingResourceForeground": "#e4676b",
		"gitDecoration.ignoredResourceForeground": "#8c8c8c",
		"gitDecoration.renamedResourceForeground": "#73c991",
		"gitDecoration.submoduleResourceForeground": "#8db9e2",
		"gitDecoration.untrackedResourceForeground": "#73c991",
		"gitlens.closedAutolinkedIssueIconColor": "#a371f7",
		"gitlens.closedPullRequestIconColor": "#f85149",
		"gitlens.decorations.addedForegroundColor": "#aa00ff",
		"gitlens.decorations.branchAheadForegroundColor": "#35b15e",
		"gitlens.decorations.branchBehindForegroundColor": "#b15e35",
		"gitlens.decorations.branchDivergedForegroundColor": "#d8af1b",
		"gitlens.decorations.branchMissingUpstreamForegroundColor": "#c74e39",
		"gitlens.decorations.branchUnpublishedForegroundColor": "#35b15e",
		"gitlens.decorations.copiedForegroundColor": "#73c991",
		"gitlens.decorations.deletedForegroundColor": "#8800ff",
		"gitlens.decorations.ignoredForegroundColor": "#8c8c8c",
		"gitlens.decorations.modifiedForegroundColor": "#399ee6",
		"gitlens.decorations.renamedForegroundColor": "#73c991",
		"gitlens.decorations.statusMergingOrRebasingConflictForegroundColor": "#c74e39",
		"gitlens.decorations.statusMergingOrRebasingForegroundColor": "#d8af1b",
		"gitlens.decorations.untrackedForegroundColor": "#73c991",
		"gitlens.decorations.workspaceCurrentForegroundColor": "#35b15e",
		"gitlens.decorations.workspaceRepoMissingForegroundColor": "#909090",
		"gitlens.decorations.workspaceRepoOpenForegroundColor": "#35b15e",
		"gitlens.decorations.worktreeHasUncommittedChangesForegroundColor": "#e2c08d",
		"gitlens.decorations.worktreeMissingForegroundColor": "#c74e39",
		"gitlens.graphChangesColumnAddedColor": "#347d39",
		"gitlens.graphChangesColumnDeletedColor": "#c93c37",
		"gitlens.graphLane10Color": "#2ece9d",
		"gitlens.graphLane1Color": "#15a0bf",
		"gitlens.graphLane2Color": "#0669f7",
		"gitlens.graphLane3Color": "#8e00c2",
		"gitlens.graphLane4Color": "#c517b6",
		"gitlens.graphLane5Color": "#d90171",
		"gitlens.graphLane6Color": "#cd0101",
		"gitlens.graphLane7Color": "#f25d2e",
		"gitlens.graphLane8Color": "#f2ca33",
		"gitlens.graphLane9Color": "#7bd938",
		"gitlens.graphMinimapMarkerHeadColor": "#05e617",
		"gitlens.graphMinimapMarkerHighlightsColor": "#fbff0a",
		"gitlens.graphMinimapMarkerLocalBranchesColor": "#3087cf",
		"gitlens.graphMinimapMarkerRemoteBranchesColor": "#2b5e88",
		"gitlens.graphMinimapMarkerStashesColor": "#b34db3",
		"gitlens.graphMinimapMarkerTagsColor": "#6b562e",
		"gitlens.graphMinimapMarkerUpstreamColor": "#09ae17",
		"gitlens.graphScrollMarkerHeadColor": "#05e617",
		"gitlens.graphScrollMarkerHighlightsColor": "#fbff0a",
		"gitlens.graphScrollMarkerLocalBranchesColor": "#3087cf",
		"gitlens.graphScrollMarkerRemoteBranchesColor": "#2b5e88",
		"gitlens.graphScrollMarkerStashesColor": "#b34db3",
		"gitlens.graphScrollMarkerTagsColor": "#6b562e",
		"gitlens.graphScrollMarkerUpstreamColor": "#09ae17",
		"gitlens.gutterBackgroundColor": "#ffffff13",
		"gitlens.gutterForegroundColor": "#bebebe",
		"gitlens.gutterUncommittedForegroundColor": "#00bcf299",
		"gitlens.launchpadIndicatorAttentionColor": "#d8af1b",
		"gitlens.launchpadIndicatorAttentionHoverColor": "#d8af1b",
		"gitlens.launchpadIndicatorBlockedColor": "#c74e39",
		"gitlens.launchpadIndicatorBlockedHoverColor": "#c74e39",
		"gitlens.launchpadIndicatorMergeableColor": "#3fb950",
		"gitlens.launchpadIndicatorMergeableHoverColor": "#3fb950",
		"gitlens.lineHighlightBackgroundColor": "#00bcf233",
		"gitlens.lineHighlightOverviewRulerColor": "#00bcf299",
		"gitlens.mergedPullRequestIconColor": "#a371f7",
		"gitlens.openAutolinkedIssueIconColor": "#3fb950",
		"gitlens.openPullRequestIconColor": "#3fb950",
		"gitlens.trailingLineBackgroundColor": "#00000000",
		"gitlens.trailingLineForegroundColor": "#99999959",
		"gitlens.unpublishedChangesIconColor": "#35b15e",
		"gitlens.unpublishedCommitIconColor": "#35b15e",
		"gitlens.unpulledChangesIconColor": "#b15e35",
		"icon.foreground": "#c5c5c5",
		"inlineChat.background": "#ffffff",
		"inlineChat.border": "#454545",
		"inlineChat.regionHighlight": "#264f7840",
		"inlineChat.shadow": "#e6e6e6",
		"inlineChatDiff.inserted": "#aa00ff18",
		"inlineChatDiff.removed": "#8800ff1b",
		"inlineChatInput.background": "#ffffff",
		"inlineChatInput.border": "#454545",
		"inlineChatInput.focusBorder": "#399ee6",
		"inlineChatInput.placeholderForeground": "#b200ff80",
		"input.foreground": "#b200ff",
		"input.placeholderForeground": "#b200ff80",
		"inputOption.activeBackground": "#399ee666",
		"inputOption.activeBorder": "#007acc",
		"inputOption.activeForeground": "#ffffff",
		"inputOption.hoverBackground": "#5a5d5e80",
		"interactive.activeCodeBorder": "#007acc",
		"interactive.inactiveCodeBorder": "#399ee625",
		"issues.closed": "#cb2431",
		"issues.newIssueDecoration": "#ffffff48",
		"issues.open": "#3fb950",
		"keybindingLabel.background": "#8080802b",
		"keybindingLabel.border": "#33333399",
		"keybindingLabel.bottomBorder": "#44444499",
		"keybindingLabel.foreground": "#cccccc",
		"keybindingTable.headerBackground": "#b200ff0a",
		"keybindingTable.rowsBackground": "#b200ff0a",
		"list.activeSelectionForeground": "#ffffff",
		"list.deemphasizedForeground": "#8c8c8c",
		"list.dropBackground": "#062f4a",
		"list.dropBetweenBackground": "#c5c5c5",
		"list.filterMatchBackground": "#ea5c0055",
		"list.focusHighlightForeground": "#7b00ff",
		"list.focusOutline": "#399ee6",
		"list.invalidItemForeground": "#b89500",
		"listFilterWidget.background": "#ffffff",
		"listFilterWidget.noMatchesOutline": "#be1100",
		"listFilterWidget.outline": "#00000000",
		"listFilterWidget.shadow": "#e6e6e6",
		"menubar.selectionBackground": "#5a5d5e50",
		"menubar.selectionForeground": "#cccccc",
		"merge.commonContentBackground": "#60606029",
		"merge.commonHeaderBackground": "#60606066",
		"merge.currentContentBackground": "#40c8ae33",
		"merge.currentHeaderBackground": "#40c8ae80",
		"merge.incomingContentBackground": "#40a6ff33",
		"merge.incomingHeaderBackground": "#40a6ff80",
		"mergeEditor.change.background": "#9bb95533",
		"mergeEditor.change.word.background": "#9ccc2c33",
		"mergeEditor.changeBase.background": "#4b1818",
		"mergeEditor.changeBase.word.background": "#6f1313",
		"mergeEditor.conflict.handled.minimapOverViewRuler": "#adaca8ee",
		"mergeEditor.conflict.handledFocused.border": "#c1c1c1cc",
		"mergeEditor.conflict.handledUnfocused.border": "#86868649",
		"mergeEditor.conflict.input1.background": "#40c8ae33",
		"mergeEditor.conflict.input2.background": "#40a6ff33",
		"mergeEditor.conflict.unhandled.minimapOverViewRuler": "#fcba03",
		"mergeEditor.conflict.unhandledFocused.border": "#ffa600",
		"mergeEditor.conflict.unhandledUnfocused.border": "#ffa6007a",
		"mergeEditor.conflictingLines.background": "#ffea0047",
		"minimap.findMatchHighlight": "#d18616",
		"minimap.foregroundOpacity": "#000000",
		"minimap.infoHighlight": "#399ee6",
		"minimap.selectionOccurrenceHighlight": "#676767",
		"minimapSlider.activeBackground": "#ffffff20",
		"minimapSlider.background": "#ffffff28",
		"minimapSlider.hoverBackground": "#ffffff20",
		"multiDiffEditor.headerBackground": "#262626",
		"notebook.cellBorderColor": "#399ee625",
		"notebook.cellEditorBackground": "#f9f9f9",
		"notebook.cellInsertionIndicator": "#399ee6",
		"notebook.cellStatusBarItemHoverBackground": "#ffffff26",
		"notebook.cellToolbarSeparator": "#80808059",
		"notebook.editorBackground": "#f5f5f5",
		"notebook.focusedCellBorder": "#399ee6",
		"notebook.focusedEditorBorder": "#399ee6",
		"notebook.inactiveFocusedCellBorder": "#399ee625",
		"notebook.selectedCellBackground": "#399ee625",
		"notebook.selectedCellBorder": "#399ee625",
		"notebook.symbolHighlightBackground": "#ffffff0b",
		"notebookEditorOverviewRuler.runningCellForeground": "#89d185",
		"notebookScrollbarSlider.activeBackground": "#ffffff40",
		"notebookScrollbarSlider.background": "#ffffff50",
		"notebookScrollbarSlider.hoverBackground": "#ffffff40",
		"notebookStatusErrorIcon.foreground": "#ff00ff",
		"notebookStatusRunningIcon.foreground": "#b200ff",
		"notebookStatusSuccessIcon.foreground": "#89d185",
		"notificationCenterHeader.background": "#ffffff",
		"notificationLink.foreground": "#ae00ff",
		"notifications.border": "#ffffff",
		"notifications.foreground": "#b200ff",
		"panel.background": "#ffffff",
		"panel.border": "#80808059",
		"panel.dropBorder": "#e7e7e7",
		"panelInput.border": "#ffffff",
		"panelSection.border": "#80808059",
		"panelSection.dropBackground": "#399ee630",
		"panelSectionHeader.background": "#80808033",
		"panelStickyScroll.background": "#ffffff",
		"panelStickyScroll.shadow": "#e6e6e6",
		"panelTitle.activeForeground": "#e7e7e7",
		"panelTitle.inactiveForeground": "#e7e7e799",
		"peekView.border": "#399ee6",
		"peekViewEditor.background": "#001f33",
		"peekViewEditor.matchHighlightBackground": "#ff8f0099",
		"peekViewEditorGutter.background": "#001f33",
		"peekViewEditorStickyScroll.background": "#001f33",
		"peekViewResult.fileForeground": "#ffffff",
		"peekViewResult.lineForeground": "#bbbbbb",
		"peekViewResult.matchHighlightBackground": "#ea5c004d",
		"peekViewResult.selectionBackground": "#3399ff33",
		"peekViewResult.selectionForeground": "#ffffff",
		"peekViewTitleDescription.foreground": "#ccccccb3",
		"peekViewTitleLabel.foreground": "#ffffff",
		"ports.iconRunningProcessForeground": "#cf14f5",
		"profileBadge.background": "#4d4d4d",
		"profileBadge.foreground": "#ffffff",
		"profiles.sashBorder": "#80808059",
		"pullRequests.closed": "#cb2431",
		"pullRequests.draft": "#6e7681",
		"pullRequests.merged": "#8957e5",
		"pullRequests.notification": "#399ee6",
		"pullRequests.open": "#3fb950",
		"quickInput.background": "#ffffff",
		"quickInput.foreground": "#b200ff",
		"quickInputList.focusBackground": "#399ee620",
		"quickInputList.focusForeground": "#ffffff",
		"quickInputTitle.background": "#ffffff1b",
		"sash.hoverBorder": "#399ee6",
		"scm.historyItemAdditionsForeground": "#aa00ff",
		"scm.historyItemDeletionsForeground": "#8800ff",
		"scm.historyItemSelectedStatisticsBorder": "#ffffff33",
		"scm.historyItemStatisticsBorder": "#b200ff33",
		"search.resultsInfoForeground": "#b200ffa6",
		"searchEditor.findMatchBackground": "#ea5c0038",
		"searchEditor.textInputBorder": "#ffffff",
		"settings.checkboxBackground": "#ffffff",
		"settings.checkboxBorder": "#ffffff",
		"settings.checkboxForeground": "#f0f0f0",
		"settings.dropdownBackground": "#ffffff",
		"settings.dropdownBorder": "#ffffff",
		"settings.dropdownForeground": "#f0f0f0",
		"settings.dropdownListBorder": "#454545",
		"settings.focusedRowBackground": "#ffffff99",
		"settings.focusedRowBorder": "#399ee6",
		"settings.headerBorder": "#80808059",
		"settings.headerForeground": "#e7e7e7",
		"settings.numberInputBackground": "#ffffff",
		"settings.numberInputBorder": "#ffffff",
		"settings.numberInputForeground": "#b200ff",
		"settings.rowHoverBackground": "#ffffff4d",
		"settings.sashBorder": "#80808059",
		"settings.settingsHeaderHoverForeground": "#e7e7e7b3",
		"settings.textInputBackground": "#ffffff",
		"settings.textInputBorder": "#ffffff",
		"settings.textInputForeground": "#b200ff",
		"sideBar.dropBackground": "#399ee630",
		"sideBarStickyScroll.background": "#f9f9f9",
		"sideBarStickyScroll.shadow": "#e6e6e6",
		"sideBarTitle.background": "#f9f9f9",
		"sideBySideEditor.horizontalBorder": "#f2f2f2",
		"sideBySideEditor.verticalBorder": "#f2f2f2",
		"simpleFindWidget.sashBorder": "#454545",
		"statusBar.debuggingBackground": "#cc6633",
		"statusBar.debuggingForeground": "#ffffff",
		"statusBar.focusBorder": "#ffffff",
		"statusBar.foreground": "#ffffff",
		"statusBar.noFolderBackground": "#68217a",
		"statusBar.noFolderForeground": "#ffffff",
		"statusBarItem.activeBackground": "#ffffff2e",
		"statusBarItem.compactHoverBackground": "#ffffff33",
		"statusBarItem.errorBackground": "#990099",
		"statusBarItem.errorForeground": "#ffffff",
		"statusBarItem.errorHoverBackground": "#f2f2f2",
		"statusBarItem.errorHoverForeground": "#ffffff",
		"statusBarItem.focusBorder": "#ffffff",
		"statusBarItem.hoverForeground": "#ffffff",
		"statusBarItem.offlineBackground": "#6c1717",
		"statusBarItem.offlineForeground": "#ffffff",
		"statusBarItem.offlineHoverBackground": "#f2f2f2",
		"statusBarItem.offlineHoverForeground": "#ffffff",
		"statusBarItem.prominentHoverForeground": "#ffffff",
		"statusBarItem.remoteBackground": "#cf14f5",
		"statusBarItem.remoteForeground": "#ffffff",
		"statusBarItem.remoteHoverBackground": "#f2f2f2",
		"statusBarItem.remoteHoverForeground": "#ffffff",
		"statusBarItem.warningBackground": "#990066",
		"statusBarItem.warningForeground": "#ffffff",
		"statusBarItem.warningHoverBackground": "#f2f2f2",
		"statusBarItem.warningHoverForeground": "#ffffff",
		"symbolIcon.arrayForeground": "#b200ff",
		"symbolIcon.booleanForeground": "#b200ff",
		"symbolIcon.classForeground": "#ee9d28",
		"symbolIcon.colorForeground": "#b200ff",
		"symbolIcon.constantForeground": "#b200ff",
		"symbolIcon.constructorForeground": "#b180d7",
		"symbolIcon.enumeratorForeground": "#ee9d28",
		"symbolIcon.enumeratorMemberForeground": "#75beff",
		"symbolIcon.eventForeground": "#ee9d28",
		"symbolIcon.fieldForeground": "#75beff",
		"symbolIcon.fileForeground": "#b200ff",
		"symbolIcon.folderForeground": "#b200ff",
		"symbolIcon.functionForeground": "#b180d7",
		"symbolIcon.interfaceForeground": "#75beff",
		"symbolIcon.keyForeground": "#b200ff",
		"symbolIcon.keywordForeground": "#b200ff",
		"symbolIcon.methodForeground": "#b180d7",
		"symbolIcon.moduleForeground": "#b200ff",
		"symbolIcon.namespaceForeground": "#b200ff",
		"symbolIcon.nullForeground": "#b200ff",
		"symbolIcon.numberForeground": "#b200ff",
		"symbolIcon.objectForeground": "#b200ff",
		"symbolIcon.operatorForeground": "#b200ff",
		"symbolIcon.packageForeground": "#b200ff",
		"symbolIcon.propertyForeground": "#b200ff",
		"symbolIcon.referenceForeground": "#b200ff",
		"symbolIcon.snippetForeground": "#b200ff",
		"symbolIcon.stringForeground": "#b200ff",
		"symbolIcon.structForeground": "#b200ff",
		"symbolIcon.textForeground": "#b200ff",
		"symbolIcon.typeParameterForeground": "#b200ff",
		"symbolIcon.unitForeground": "#b200ff",
		"symbolIcon.variableForeground": "#75beff",
		"tab.activeForeground": "#ffffff",
		"tab.dragAndDropBorder": "#ffffff",
		"tab.inactiveForeground": "#ffffff80",
		"tab.inactiveModifiedBorder": "#399ee680",
		"tab.selectedBackground": "#ffffff",
		"tab.selectedForeground": "#ffffff",
		"tab.unfocusedActiveBackground": "#ffffff",
		"tab.unfocusedActiveBorder": "#399ee680",
		"tab.unfocusedActiveForeground": "#ffffff80",
		"tab.unfocusedActiveModifiedBorder": "#399ee680",
		"tab.unfocusedHoverBackground": "#ffffff80",
		"tab.unfocusedInactiveBackground": "#ffffff",
		"tab.unfocusedInactiveForeground": "#ffffff40",
		"tab.unfocusedInactiveModifiedBorder": "#399ee640",
		"terminal.ansiBlack": "#000000",
		"terminal.ansiBlue": "#2472c8",
		"terminal.ansiBrightBlack": "#666666",
		"terminal.ansiBrightBlue": "#3b8eea",
		"terminal.ansiBrightCyan": "#29b8db",
		"terminal.ansiBrightGreen": "#23d18b",
		"terminal.ansiBrightMagenta": "#d670d6",
		"terminal.ansiBrightRed": "#f14c4c",
		"terminal.ansiBrightWhite": "#e5e5e5",
		"terminal.ansiBrightYellow": "#f5f543",
		"terminal.ansiCyan": "#11a8cd",
		"terminal.ansiGreen": "#0dbc79",
		"terminal.ansiMagenta": "#bc3fbc",
		"terminal.ansiRed": "#cd3131",
		"terminal.ansiWhite": "#e5e5e5",
		"terminal.ansiYellow": "#e5e510",
		"terminal.border": "#80808059",
		"terminal.dropBackground": "#399ee630",
		"terminal.findMatchBackground": "#515c6a",
		"terminal.findMatchHighlightBackground": "#ea5c0055",
		"terminal.foreground": "#cccccc",
		"terminal.hoverHighlightBackground": "#264f7820",
		"terminal.inactiveSelectionBackground": "#399ee680",
		"terminal.tab.activeBorder": "#399ee6",
		"terminalCommandDecoration.defaultBackground": "#ffffff40",
		"terminalCommandDecoration.errorBackground": "#f14c4c",
		"terminalCommandDecoration.successBackground": "#1b81a8",
		"terminalOverviewRuler.cursorForeground": "#a0a0a0cc",
		"terminalOverviewRuler.findMatchForeground": "#d186167e",
		"terminalStickyScrollHover.background": "#2a2d2e",
		"testing.coverCountBadgeBackground": "#cf14f5",
		"testing.coverCountBadgeForeground": "#ffffff",
		"testing.coveredBackground": "#aa00ff30",
		"testing.coveredBorder": "#aa00ff24",
		"testing.coveredGutterBackground": "#aa00ff1d",
		"testing.iconErrored": "#f14c4c",
		"testing.iconErrored.retired": "#f14c4cb3",
		"testing.iconFailed": "#f14c4c",
		"testing.iconFailed.retired": "#f14c4cb3",
		"testing.iconPassed": "#73c991",
		"testing.iconPassed.retired": "#73c991b3",
		"testing.iconQueued": "#cca700",
		"testing.iconQueued.retired": "#cca700b3",
		"testing.iconSkipped": "#848484",
		"testing.iconSkipped.retired": "#848484b3",
		"testing.iconUnset": "#848484",
		"testing.iconUnset.retired": "#848484b3",
		"testing.message.error.decorationForeground": "#ff00ff",
		"testing.message.error.lineBackground": "#ff000033",
		"testing.message.info.decorationForeground": "#b200ff80",
		"testing.messagePeekBorder": "#399ee6",
		"testing.messagePeekHeaderBackground": "#399ee61a",
		"testing.peekBorder": "#ff00ff",
		"testing.peekHeaderBackground": "#ff00ff1a",
		"testing.runAction": "#73c991",
		"testing.uncoveredBackground": "#8800ff35",
		"testing.uncoveredBorder": "#8800ff28",
		"testing.uncoveredBranchBackground": "#cd94ff",
		"testing.uncoveredGutterBackground": "#8800ff50",
		"textBlockQuote.background": "#222222",
		"textBlockQuote.border": "#007acc80",
		"textCodeBlock.background": "#0a0a0a66",
		"textPreformat.background": "#ffffff1a",
		"titleBar.activeForeground": "#cccccc",
		"titleBar.inactiveForeground": "#cccccc99",
		"toolbar.activeBackground": "#63666750",
		"toolbar.hoverBackground": "#5a5d5e50",
		"tree.inactiveIndentGuidesStroke": "#58585866",
		"tree.indentGuidesStroke": "#585858",
		"tree.tableColumnsBorder": "#cccccc20",
		"tree.tableOddRowsBackground": "#b200ff0a",
		"walkThrough.embeddedEditorBackground": "#00000066",
		"walkthrough.stepTitle.foreground": "#ffffff",
		"welcomePage.progress.background": "#ffffff",
		"welcomePage.progress.foreground": "#ae00ff",
		"welcomePage.tileBackground": "#ffffff",
		"welcomePage.tileBorder": "#ffffff1a",
		"welcomePage.tileHoverBackground": "#ffffff",
		"activityBar.border": null,
		"activityBarTop.activeBackground": null,
		"activityBarTop.background": null,
		"button.border": null,
		"contrastActiveBorder": null,
		"contrastBorder": null,
		"debugToolBar.border": null,
		"diffEditor.border": null,
		"diffEditor.insertedTextBorder": null,
		"diffEditor.removedTextBorder": null,
		"diffEditorGutter.insertedLineBackground": null,
		"diffEditorGutter.removedLineBackground": null,
		"diffEditorOverview.insertedForeground": null,
		"diffEditorOverview.removedForeground": null,
		"dropdown.listBackground": null,
		"editor.findMatchBorder": null,
		"editor.findMatchForeground": null,
		"editor.findMatchHighlightBorder": null,
		"editor.findMatchHighlightForeground": null,
		"editor.findRangeHighlightBorder": null,
		"editor.rangeHighlightBorder": null,
		"editor.selectionForeground": null,
		"editor.selectionHighlightBorder": null,
		"editor.snippetFinalTabstopHighlightBackground": null,
		"editor.snippetTabstopHighlightBorder": null,
		"editor.symbolHighlightBorder": null,
		"editor.wordHighlightBorder": null,
		"editor.wordHighlightStrongBorder": null,
		"editor.wordHighlightTextBorder": null,
		"editorError.background": null,
		"editorError.border": null,
		"editorGhostText.background": null,
		"editorGhostText.border": null,
		"editorGroup.dropIntoPromptBorder": null,
		"editorGroup.emptyBackground": null,
		"editorGroup.focusedEmptyBorder": null,
		"editorGroupHeader.border": null,
		"editorGroupHeader.tabsBorder": null,
		"editorHint.border": null,
		"editorInfo.background": null,
		"editorInfo.border": null,
		"editorLineNumber.dimmedForeground": null,
		"editorOverviewRuler.background": null,
		"editorStickyScroll.border": null,
		"editorSuggestWidget.selectedIconForeground": null,
		"editorUnicodeHighlight.background": null,
		"editorUnnecessaryCode.border": null,
		"editorWarning.background": null,
		"editorWarning.border": null,
		"gitlens.decorations.branchUpToDateForegroundColor": null,
		"list.activeSelectionIconForeground": null,
		"list.filterMatchBorder": null,
		"list.focusAndSelectionOutline": null,
		"list.focusForeground": null,
		"list.hoverForeground": null,
		"list.inactiveFocusBackground": null,
		"list.inactiveFocusOutline": null,
		"list.inactiveSelectionForeground": null,
		"list.inactiveSelectionIconForeground": null,
		"menu.border": null,
		"menu.selectionBorder": null,
		"menubar.selectionBorder": null,
		"merge.border": null,
		"minimap.background": null,
		"multiDiffEditor.background": null,
		"multiDiffEditor.border": null,
		"notebook.cellHoverBackground": null,
		"notebook.focusedCellBackground": null,
		"notebook.inactiveSelectedCellBorder": null,
		"notebook.outputContainerBackgroundColor": null,
		"notebook.outputContainerBorderColor": null,
		"notificationCenter.border": null,
		"notificationCenterHeader.foreground": null,
		"notificationToast.border": null,
		"outputView.background": null,
		"outputViewStickyScroll.background": null,
		"panelSectionHeader.border": null,
		"panelSectionHeader.foreground": null,
		"panelStickyScroll.border": null,
		"peekViewEditor.matchHighlightBorder": null,
		"quickInput.list.focusBackground": null,
		"quickInputList.focusIconForeground": null,
		"searchEditor.findMatchBorder": null,
		"sideBar.border": null,
		"sideBar.foreground": null,
		"sideBarActivityBarTop.border": null,
		"sideBarSectionHeader.border": null,
		"sideBarSectionHeader.foreground": null,
		"sideBarStickyScroll.border": null,
		"sideBarTitle.foreground": null,
		"statusBar.border": null,
		"statusBar.debuggingBorder": null,
		"statusBar.noFolderBorder": null,
		"tab.activeBorderTop": null,
		"tab.hoverBorder": null,
		"tab.hoverForeground": null,
		"tab.selectedBorderTop": null,
		"tab.unfocusedActiveBorderTop": null,
		"tab.unfocusedHoverBorder": null,
		"tab.unfocusedHoverForeground": null,
		"terminal.background": null,
		"terminal.findMatchBorder": null,
		"terminal.findMatchHighlightBorder": null,
		"terminal.selectionForeground": null,
		"terminalStickyScroll.background": null,
		"testing.message.info.lineBackground": null,
		"toolbar.hoverOutline": null,
		"welcomePage.background": null,
		"widget.border": null,
		"window.activeBorder": null,
		"window.inactiveBorder": null
	},
	"tokenColors": [
		{
			"scope": "invalid",
			"settings": {
				"foreground": "#FF00FF"
			}
		},
		{
			"scope": [
				"meta.embedded",
				"source.groovy.embedded",
				"meta.template.expression"
			],
			"settings": {
				"foreground": "#B200FF"
			}
		},
		{
			"scope": [
				"variable",
				"support.variable.property.dom",
				"support.variable.dom",
				"support.variable.property",
				"punctuation.separator.parameter",
				"string.interpolated.pug variable"
			],
			"settings": {
				"foreground": "#B200FF"
			}
		},
		{
			"scope": [
				"comment",
				"punctuation.definition.comment"
			],
			"settings": {
				"foreground": "#FFFFFF"
			}
		},
		{
			"scope": [
				"string",
				"punctuation.definition.string"
			],
			"settings": {
				"foreground": "#399EE6"
			}
		},
		{
			"scope": "constant.character.escape",
			"settings": {
				"foreground": "#AE00FF"
			}
		},
		{
			"scope": [
				"keyword",
				"constant.language.import-export-all"
			],
			"settings": {
				"foreground": "#7B00FF"
			}
		},
		{
			"scope": [
				"entity.name.type",
				"support.type.primitive",
				"support.type.builtin",
				"meta.type.annotation entity.name.type",
				"meta.type.parameters entity.name.type"
			],
			"settings": {
				"foreground": "#A154FF"
			}
		},
		{
			"scope": [
				"keyword.control",
				"storage",
				"support.type",
				"keyword.operator.expression",
				"keyword.operator.new"
			],
			"settings": {
				"foreground": "#AE00FF"
			}
		},
		{
			"scope": [
				"entity.name.function",
				"support.class",
				"support.function",
				"new.expr entity.name.type",
				"entity.other.inherited-class"
			],
			"settings": {
				"foreground": "#FF00AA"
			}
		},
		{
			"scope": [
				"punctuation.definition.typeparameters",
				"keyword.operator.type",
				"keyword.operator.optional",
				"source.tsx punctuation.section.embedded",
				"source.jsx punctuation.section.embedded"
			],
			"settings": {
				"foreground": "#00A1E6"
			}
		},
		{
			"scope": "constant",
			"settings": {
				"foreground": "#A154FF"
			}
		},
		{
			"scope": [
				"constant.numeric",
				"constant.language"
			],
			"settings": {
				"foreground": "#CF14F5"
			}
		},
		{
			"scope": [
				"variable.parameter",
				"parameter.variable",
				"meta.function.parameter variable",
				"source.rust meta.type_params.rust"
			],
			"settings": {
				"foreground": "#CF14F5"
			}
		},
		{
			"scope": [
				"punctuation",
				"meta.brace"
			],
			"settings": {
				"foreground": "#7300A6"
			}
		},
		{
			"scope": "comment.block.documentation entity.name.type",
			"settings": {
				"foreground": "#00A1E6"
			}
		},
		{
			"scope": [
				"variable.language.this",
				"variable.language.special.self"
			],
			"settings": {
				"foreground": "#AE00FF"
			}
		},
		{
			"scope": [
				"meta.tag.metadata.doctype entity.name.tag",
				"meta.tag.metadata.doctype punctuation.definition.tag",
				"meta.tag.metadata.doctype string",
				"meta.tag.metadata.doctype entity.other.attribute-name.html",
				"meta.tag.sgml.doctype"
			],
			"settings": {
				"foreground": "#7300A6"
			}
		},
		{
			"scope": "entity.name.tag",
			"settings": {
				"foreground": "#AE00FF"
			}
		},
		{
			"scope": "meta.tag string",
			"settings": {
				"foreground": "#399EE6"
			}
		},
		{
			"scope": "meta.attribute punctuation.definition.string",
			"settings": {
				"foreground": "#7300A6"
			}
		},
		{
			"scope": [
				"meta.tag entity.other.attribute-name",
				"entity.other.attribute-name.html"
			],
			"settings": {
				"foreground": "#7B00FF"
			}
		},
		{
			"scope": [
				"constant.character.entity",
				"punctuation.definition.entity"
			],
			"settings": {
				"foreground": "#CF14F5"
			}
		},
		{
			"scope": [
				"entity.name.section.markdown",
				"markup.heading.setext"
			],
			"settings": {
				"foreground": "#7B00FF"
			}
		},
		{
			"scope": "punctuation.definition.list",
			"settings": {
				"foreground": "#7B00FF"
			}
		},
		{
			"scope": "meta.separator.markdown",
			"settings": {
				"foreground": "#7B00FF"
			}
		},
		{
			"scope": "markup.inline.raw",
			"settings": {
				"foreground": "#AE00FF"
			}
		},
		{
			"scope": "markup.bold",
			"settings": {
				"fontStyle": "bold"
			}
		},
		{
			"scope": "markup.italic",
			"settings": {
				"fontStyle": "italic"
			}
		},
		{
			"scope": [
				"meta.link punctuation.definition.string",
				"meta.image punctuation.definition.string"
			],
			"settings": {
				"foreground": "#7300A6"
			}
		},
		{
			"scope": [
				"link",
				"markup.underline.link",
				"constant.other.reference.link.markdown"
			],
			"settings": {
				"foreground": "#FF00AA"
			}
		},
		{
			"scope": "markup.quote",
			"settings": {
				"foreground": "#CF14F5"
			}
		},
		{
			"scope": [
				"entity.name.tag.css",
				"entity.name.tag.wildcard"
			],
			"settings": {
				"foreground": "#399EE6"
			}
		},
		{
			"scope": [
				"entity.other.attribute-name.class",
				"entity.other.attribute-name punctuation.definition.entity"
			],
			"settings": {
				"foreground": "#7B00FF"
			}
		},
		{
			"scope": [
				"entity.other.attribute-name.pseudo-element",
				"entity.other.attribute-name.pseudo-class",
				"constant.other.color"
			],
			"settings": {
				"foreground": "#AE00FF"
			}
		},
		{
			"scope": [
				"entity.other.attribute-name.id",
				"entity.other.attribute-name.id punctuation.definition.entity"
			],
			"settings": {
				"foreground": "#FF00AA"
			}
		},
		{
			"scope": "source.css constant.numeric",
			"settings": {
				"foreground": "#399EE6"
			}
		},
		{
			"scope": [
				"meta.property-name",
				"support.type.property-name"
			],
			"settings": {
				"foreground": "#CF14F5"
			}
		},
		{
			"scope": [
				"meta.property-value",
				"meta.property-value constant.other",
				"support.constant.property-value"
			],
			"settings": {
				"foreground": "#FF00AA"
			}
		},
		{
			"scope": "variable.parameter.url",
			"settings": {
				"foreground": "#CF14F5"
			}
		},
		{
			"scope": "punctuation.definition.variable",
			"settings": {
				"foreground": "#B200FF"
			}
		},
		{
			"scope": [
				"punctuation.section.embedded.begin.php",
				"punctuation.section.embedded.end.php"
			],
			"settings": {
				"foreground": "#7B00FF"
			}
		},
		{
			"scope": "entity.name.section",
			"settings": {
				"foreground": "#FF00AA"
			}
		},
		{
			"scope": "support.type.property-name.json",
			"settings": {
				"foreground": "#7B00FF"
			}
		},
		{
			"scope": "markup.inserted",
			"settings": {
				"foreground": "#AA00FF"
			}
		},
		{
			"scope": "markup.changed",
			"settings": {
				"foreground": "#399EE6"
			}
		},
		{
			"scope": "markup.deleted",
			"settings": {
				"foreground": "#8800FF"
			}
		},
		{
			"scope": "meta.diff.header",
			"settings": {
				"foreground": "#399EE6",
				"fontStyle": "italic"
			}
		},
		{
			"scope": "meta.diff.range",
			"settings": {
				"foreground": "#AE00FF"
			}
		},
		{
			"scope": "token.info-token",
			"settings": {
				"foreground": "#6796E6"
			}
		},
		{
			"scope": "token.warn-token",
			"settings": {
				"foreground": "#CD9731"
			}
		},
		{
			"scope": "token.error-token",
			"settings": {
				"foreground": "#F44747"
			}
		},
		{
			"scope": "token.debug-token",
			"settings": {
				"foreground": "#B267E6"
			}
		}
	]
}